0 info it worked if it ends with ok
1 verbose cli [ '/usr/bin/nodejs',
1 verbose cli   '/usr/bin/npm',
1 verbose cli   'view',
1 verbose cli   '@ionic/cli-plugin-cordova',
1 verbose cli   'dist-tags.latest',
1 verbose cli   '--json' ]
2 info using npm@3.10.10
3 info using node@v6.11.1
4 silly mapToRegistry name @ionic/cli-plugin-cordova
5 silly mapToRegistry scope (from package name) @ionic
6 verbose mapToRegistry no registry URL found in name for scope @ionic
7 silly mapToRegistry using default registry
8 silly mapToRegistry registry https://registry.npmjs.org/
9 silly mapToRegistry data Result {
9 silly mapToRegistry   raw: '@ionic/cli-plugin-cordova',
9 silly mapToRegistry   scope: '@ionic',
9 silly mapToRegistry   escapedName: '@ionic%2fcli-plugin-cordova',
9 silly mapToRegistry   name: '@ionic/cli-plugin-cordova',
9 silly mapToRegistry   rawSpec: '',
9 silly mapToRegistry   spec: 'latest',
9 silly mapToRegistry   type: 'tag' }
10 silly mapToRegistry uri https://registry.npmjs.org/@ionic%2fcli-plugin-cordova
11 verbose request uri https://registry.npmjs.org/@ionic%2fcli-plugin-cordova
12 verbose request no auth needed
13 info attempt registry request try #1 at 7:09:49 PM
14 verbose request id 42721fe3de5740fe
15 verbose etag W/"59779656-be9b9"
16 verbose lastModified Tue, 25 Jul 2017 19:04:54 GMT
17 http request GET https://registry.npmjs.org/@ionic%2fcli-plugin-cordova
18 http 200 https://registry.npmjs.org/@ionic%2fcli-plugin-cordova
19 verbose headers { 'content-type': 'application/json',
19 verbose headers   server: 'nginx/1.10.1',
19 verbose headers   'last-modified': 'Fri, 28 Jul 2017 01:53:18 GMT',
19 verbose headers   etag: 'W/"597a990e-c6bca"',
19 verbose headers   'content-encoding': 'gzip',
19 verbose headers   'cache-control': 'max-age=0',
19 verbose headers   'transfer-encoding': 'chunked',
19 verbose headers   'accept-ranges': 'bytes',
19 verbose headers   date: 'Fri, 28 Jul 2017 14:09:51 GMT',
19 verbose headers   via: '1.1 varnish',
19 verbose headers   connection: 'keep-alive',
19 verbose headers   'x-served-by': 'cache-cdg8721-CDG',
19 verbose headers   'x-cache': 'MISS',
19 verbose headers   'x-cache-hits': '0',
19 verbose headers   'x-timer': 'S1501250991.569295,VS0,VE583',
19 verbose headers   vary: 'Accept-Encoding' }
20 silly get cb [ 200,
20 silly get   { 'content-type': 'application/json',
20 silly get     server: 'nginx/1.10.1',
20 silly get     'last-modified': 'Fri, 28 Jul 2017 01:53:18 GMT',
20 silly get     etag: 'W/"597a990e-c6bca"',
20 silly get     'content-encoding': 'gzip',
20 silly get     'cache-control': 'max-age=0',
20 silly get     'transfer-encoding': 'chunked',
20 silly get     'accept-ranges': 'bytes',
20 silly get     date: 'Fri, 28 Jul 2017 14:09:51 GMT',
20 silly get     via: '1.1 varnish',
20 silly get     connection: 'keep-alive',
20 silly get     'x-served-by': 'cache-cdg8721-CDG',
20 silly get     'x-cache': 'MISS',
20 silly get     'x-cache-hits': '0',
20 silly get     'x-timer': 'S1501250991.569295,VS0,VE583',
20 silly get     vary: 'Accept-Encoding' } ]
21 verbose get saving @ionic/cli-plugin-cordova to /home/faizan/.npm/registry.npmjs.org/_40ionic_252fcli-plugin-cordova/.cache.json
22 verbose correctMkdir /home/faizan/.npm correctMkdir not in flight; initializing
23 verbose exit [ 0, true ]
24 verbose stack Error: write EPIPE
24 verbose stack     at exports._errnoException (util.js:1018:11)
24 verbose stack     at WriteWrap.afterWrite (net.js:800:14)
25 verbose cwd /home/faizan/code/coursera/ionic/ufosightings_ionic
26 error Linux 4.4.0-87-generic
27 error argv "/usr/bin/nodejs" "/usr/bin/npm" "view" "@ionic/cli-plugin-cordova" "dist-tags.latest" "--json"
28 error node v6.11.1
29 error npm  v3.10.10
30 error code EPIPE
31 error errno EPIPE
32 error syscall write
33 error write EPIPE
34 error If you need help, you may report this error at:
34 error     <https://github.com/npm/npm/issues>
35 verbose exit [ 1, true ]
